Final_Project/E24056572/FPGA2/.Xil/Vivado-17676-NekoSaiKouNB/hw_ila_data_1/zip_work/waveform.vcd
$date
        2019-Jan-14 12:08:20
$end
$version
        Vivado v2018.2 (64-bit)
$end
$timescale
        1ps
$end
$scope module dut $end
$var reg 36 " design_1_i/magnitude_0_magnitude [35:0] $end
$var reg 11 F design_1_i/magnitude_0_index_out [10:0] $end
$var reg 24 Q design_1_i/i2s_receive_new_FFT_0_M_AXIS_TDATA [23:0] $end
$var reg 64 i design_1_i/xfft_0_m_axis_data_tdata [63:0] $end
$var reg 11 K" design_1_i/xfft_0_m_axis_data_tuser [10:0] $end
$var reg 1 V" design_1_i/bclk_r $end
$var reg 1 W" design_1_i/i2s_receive_new_FFT_0_M_AXIS_TVALID $end
$var reg 1 X" design_1_i/lrclk_r $end
$var reg 1 Y" design_1_i/magnitude_0_valid_out $end
$var reg 1 Z" u_ila_0_xfft_0_m_axis_data_tvalid $end
$var reg 1 [" _TRIGGER $end
$var reg 1 \" _WINDOW $end
$var reg 1 ]" _GAP $end
$upscope $end
$enddefinitions $end
#0
$dumpvars
b110011100110101000 "
b10011110111 F
b110111000011110011 Q
b1111111111111111101010101110100011111111111111111100011010000000 i
b10011110111 K"
0V"
0W"
1X"
0Y"
0Z"
0["
1\"
0]"
$end
#13
1V"
#30
0V"
#46
1V"
#62
0V"
#78
1V"
#94
0V"
#111
1V"
#127
0V"
#143
1V"
#160
0V"
#176
1V"
#193
0V"
#209
1V"
#225
0V"
#241
1V"
#258
0V"
#274
1V"
#290
0V"
#306
1V"
#323
0V"
#339
1V"
#355
0V"
#372
1V"
#388
0V"
#404
1V"
#420
0V"
#436
1V"
#453
0V"
#469
1V"
#485
0V"
#502
1V"
#518
0V"
#534
1V"
#551
0V"
#567
1V"
#583
0V"
#599
1V"
#615
0V"
#632
1V"
#648
0V"
#664
1V"
#681
0V"
#697
1V"
#713
0V"
#730
1V"
#746
0V"
#762
1V"
#778
0V"
#795
1V"
#811
0V"
#827
1V"
#843
0V"
0X"
#860
1V"
#876
0V"
#892
1V"
#909
0V"
#925
1V"
#941
0V"
#957
1V"
#974
0V"
#990
1V"
#1006
0V"
#1022
1V"
#1039
0V"
#1055
1V"
#1071
0V"
#1087
1V"
#1104
0V"
#1120
1V"
#1136
0V"
#1152
1V"
#1169
0V"
#1185
1V"
#1201
0V"
#1218
1V"
#1234
0V"
#1251
1V"
#1267
0V"
#1283
1V"
#1299
0V"
#1315
1V"
#1332
0V"
#1348
1V"
#1364
0V"
#1381
1V"
#1397
0V"
#1413
1V"
#1429
0V"
#1446
1V"
#1462
0V"
#1478
1V"
#1495
0V"
#1511
1V"
#1527
0V"
#1543
1V"
#1559
0V"
#1576
1V"
#1592
0V"
#1608
1V"
#1625
0V"
#1641
1V"
#1657
0V"
#1674
1V"
#1690
0V"
#1706
1V"
#1722
0V"
#1738
1V"
#1755
0V"
#1771
1V"
#1787
0V"
#1804
1V"
#1820
0V"
#1836
1V"
#1853
0V"
#1869
1V"
#1885
0V"
1X"
#1902
1V"
#1918
0V"
#1934
1V"
#1936
b1001001111000100101 Q
1W"
#1937
0W"
#1942
b1111111111111111111011000001011000000000000000000000010100111000 i
b10100000111 K"
1Z"
#1943
b1110011011011111111111111111111100000001110111 i
b10011111000 K"
0Z"
#1945
b1010000001000110 "
b10100000111 F
1Y"
#1946
b101010001110011011 "
b10011111000 F
0Y"
#1950
0V"
#1967
1V"
#1983
0V"
#1999
1V"
#2015
0V"
#2032
1V"
#2048
0V"
#2064
1V"
#2080
0V"
#2096
1V"
#2113
0V"
#2129
1V"
#2145
0V"
#2162
1V"
#2178
0V"
#2194
1V"
#2211
0V"
#2227
1V"
#2243
0V"
#2259
1V"
#2275
0V"
#2292
1V"
#2308
0V"
#2324
1V"
#2341
0V"
#2357
1V"
#2374
0V"
#2390
1V"
#2406
0V"
#2423
1V"
#2439
0V"
#2455
1V"
#2471
0V"
#2487
1V"
#2504
0V"
#2520
1V"
#2536
0V"
#2552
1V"
#2569
0V"
#2585
1V"
#2601
0V"
#2617
1V"
#2634
0V"
#2650
1V"
#2666
0V"
#2683
1V"
#2699
0V"
#2715
1V"
#2732
0V"
#2748
1V"
#2764
0V"
#2780
1V"
#2797
0V"
#2813
1V"
#2829
0V"
#2845
1V"
#2862
0V"
#2878
1V"
#2894
0V"
#2910
1V"
#2927
0V"
0X"
#2943
1V"
#2959
0V"
#2976
1V"
#2992
0V"
#3008
1V"
#3025
0V"
#3041
1V"
#3057
0V"
#3073
1V"
#3090
0V"
#3106
1V"
#3122
0V"
#3138
1V"
#3155
0V"
#3171
1V"
#3187
0V"
#3203
1V"
#3220
0V"
#3236
1V"
#3252
0V"
#3269
1V"
#3285
0V"
#3301
1V"
#3317
0V"
#3334
1V"
#3350
0V"
#3366
1V"
#3382
0V"
#3399
1V"
#3415
0V"
#3431
1V"
#3448
0V"
#3464
1V"
#3480
0V"
#3496
1V"
#3513
0V"
#3529
1V"
#3545
0V"
#3562
1V"
#3578
0V"
#3594
1V"
#3610
0V"
#3627
1V"
#3643
0V"
#3659
1V"
#3676
0V"
#3692
1V"
#3708
0V"
#3724
1V"
#3741
0V"
#3757
1V"
#3773
0V"
#3789
1V"
#3806
0V"
#3822
1V"
#3838
0V"
#3854
1V"
#3871
0V"
#3887
1V"
#3903
0V"
#3919
1V"
#3936
0V"
#3952
1V"
#3968
0V"
1X"
#3985
1V"
#4001
0V"
#4017
1V"
#4019
b1010010110110100101 Q
1W"
#4020
0W"
#4025
b1111111111111111101101000111101000000000000000000111000010111000 i
b10100001000 K"
1Z"
#4026
b1111111111111111111011101111111011111111111111111100101100001011 i
b10011111001 K"
0Z"
#4028
b1000100001100100000 "
b10100001000 F
1Y"
#4029
b11011011010111011 "
b10011111001 F
0Y"
#4034
0V"
#4050
1V"
#4066
0V"
#4082
1V"
#4099
0V"
#4115
1V"
#4131
0V"
#4147
1V"
#4164
0V"
#4180
1V"
#4196
0V"
#4213
1V"
#4229
0V"
#4245
1V"
#4261
0V"
#4277
1V"
#4294
0V"
#4310
1V"
#4327
0V"
#4343
1V"
#4359
0V"
#4375
1V"
#4392
0V"
#4408
1V"
#4424
0V"
#4440
1V"
#4456
0V"
#4473
1V"
#4489
0V"
#4505
1V"
#4522
0V"
#4538
1V"
#4555
0V"
#4571
1V"
#4587
0V"
#4603
1V"
#4619
0V"
#4636
1V"
#4652
0V"
#4668
1V"
#4685
0V"
#4701
1V"
#4717
0V"
#4734
1V"
#4750
0V"
#4766
1V"
#4782
0V"
#4799
1V"
#4815
0V"
#4831
1V"
#4848
0V"
#4864
1V"
#4880
0V"
#4896
1V"
#4913
0V"
#4929
1V"
#4945
0V"
#4961
1V"
#4977
0V"
#4994
1V"
#5010
0V"
0X"
#5026
1V"
#5043
0V"
#5059
1V"
#5075
0V"
#5091
1V"
#5108
0V"
#5124
1V"
#5140
0V"
#5157
1V"
#5173
0V"
#5189
1V"
#5206
0V"
#5222
1V"
#5238
0V"
#5254
1V"
#5271
0V"
#5287
1V"
#5303
0V"
#5319
1V"
#5336
0V"
#5352
1V"
#5368
0V"
#5384
1V"
#5401
0V"
#5417
1V"
#5433
0V"
#5449
1V"
#5466
0V"
#5482
1V"
#5498
0V"
#5515
1V"
#5531
0V"
#5547
1V"
#5563
0V"
#5580
1V"
#5596
0V"
#5612
1V"
#5629
0V"
#5645
1V"
#5661
0V"
#5677
1V"
#5694
0V"
#5710
1V"
#5726
0V"
#5743
1V"
#5759
0V"
#5775
1V"
#5791
0V"
#5808
1V"
#5824
0V"
#5840
1V"
#5856
0V"
#5873
1V"
#5889
0V"
#5905
1V"
#5922
0V"
#5938
1V"
#5954
0V"
#5970
1V"
#5987
0V"
#6003
1V"
#6019
0V"
#6036
1V"
#6052
0V"
1X"
#6068
1V"
#6084
0V"
#6100
1V"
#6102
b1101011111111100010 Q
1W"
#6103
0W"
#6108
b1111111111111111011110100001010111111111111111111110111011000011 i
b10100001001 K"
1Z"
#6109
b1001110101110000000000000000000110010111111001 i
b10011111010 K"
0Z"
#6111
b111110111001100001 "
b10100001001 F
1Y"
#6112
b110110011100111111 "
b10011111010 F
0Y"
#6117
0V"
#6133
1V"
#6149
0V"
#6166
1V"
#6182
0V"
#6198
1V"
#6215
0V"
#6231
1V"
#6247
0V"
#6263
1V"
#6280
0V"
#6296
1V"
#6312
0V"
#6328
1V"
#6345
0V"
#6361
1V"
#6377
0V"
#6394
1V"
#6410
0V"
#6426
1V"
#6442
0V"
#6459
1V"
#6475
0V"
#6491
1V"
#6507
0V"
#6524
1V"
#6540
0V"
#6556
1V"
#6573
0V"
#6589
1V"
#6605
0V"
#6621
1V"
#6638
0V"
#6654
1V"
#6670
0V"
#6687
1V"
#6703
0V"
#6719
1V"
#6735
0V"
#6751
1V"
#6768
0V"
#6784
1V"
#6800
0V"
#6816
1V"
#6833
0V"
#6849
1V"
#6866
0V"
#6882
1V"
#6898
0V"
#6914
1V"
#6930
0V"
#6947
1V"
#6963
0V"
#6979
1V"
#6995
0V"
#7012
1V"
#7028
0V"
#7045
1V"
#7061
0V"
#7077
1V"
#7094
0V"
0X"
#7110
1V"
#7126
0V"
#7142
1V"
#7159
0V"
#7175
1V"
#7191
0V"
#7208
1V"
#7224
0V"
#7240
1V"
#7256
0V"
#7273
1V"
#7289
0V"
#7305
1V"
#7321
0V"
#7338
1V"
#7354
0V"
#7370
1V"
#7386
0V"
#7403
1V"
#7419
0V"
#7435
1V"
#7451
0V"
#7468
1V"
#7484
0V"
#7500
1V"
#7517
0V"
#7533
1V"
#7549
0V"
#7566
1V"
#7582
0V"
#7598
1V"
#7614
0V"
#7630
1V"
#7647
0V"
#7663
1V"
#7679
0V"
#7695
1V"
#7712
0V"
#7728
1V"
#7745
0V"
#7761
1V"
#7777
0V"
#7793
1V"
#7810
0V"
#7826
1V"
#7842
0V"
#7858
1V"
#7875
0V"
#7891
1V"
#7907
0V"
#7924
1V"
#7940
0V"
#7956
1V"
#7973
0V"
#7989
1V"
#8005
0V"
#8021
1V"
#8038
0V"
#8054
1V"
#8070
0V"
#8086
1V"
#8103
0V"
#8119
1V"
#8135
0V"
1X"
#8151
1V"
#8168
0V"
#8184
1V"
#8186
b10011011110110000110 Q
1W"
#8187
0W"
#8192
b1011110100000000000000000000000101101001001110 i
b10100001010 K"
1Z"
1["
#8193
b10011100111000011111111111111111111101010011110 i
b10011111011 K"
0Z"
#8195
b110011010100100010 "
b10100001010 F
1Y"
#8196
b100011101010011000 "
b10011111011 F
0Y"
#8200
0V"
#8216
1V"
#8233
0V"
#8249
1V"
#8265
0V"
#8282
1V"
#8298
0V"
#8314
1V"
#8330
0V"
#8347
1V"
#8363
0V"
#8379
1V"
#8395
0V"
#8412
1V"
#8428
0V"
#8444
1V"
#8461
0V"
#8477
1V"
#8493
0V"
#8509
1V"
#8526
0V"
#8542
1V"
#8558
0V"
#8574
1V"
#8591
0V"
#8607
1V"
#8623
0V"
#8639
1V"
#8656
0V"
#8672
1V"
#8688
0V"
#8705
1V"
#8721
0V"
#8737
1V"
#8754
0V"
#8770
1V"
#8786
0V"
#8803
1V"
#8819
0V"
#8835
1V"
#8851
0V"
#8867
1V"
#8884
0V"
#8900
1V"
#8916
0V"
#8933
1V"
#8949
0V"
#8965
1V"
#8982
0V"
#8998
1V"
#9014
0V"
#9030
1V"
#9047
0V"
#9063
1V"
#9079
0V"
#9095
1V"
#9112
0V"
#9128
1V"
#9144
0V"
#9161
1V"
#9177
0V"
0X"
#9193
1V"
#9209
0V"
#9226
1V"
#9242
0V"
#9258
1V"
#9274
0V"
#9291
1V"
#9307
0V"
#9323
1V"
#9339
0V"
#9356
1V"
#9372
0V"
#9388
1V"
#9405
0V"
#9421
1V"
#9437
0V"
#9453
1V"
#9470
0V"
#9486
1V"
#9502
0V"
#9518
1V"
#9535
0V"
#9551
1V"
#9568
0V"
#9584
1V"
#9600
0V"
#9616
1V"
#9633
0V"
#9649
1V"
#9665
0V"
#9681
1V"
#9698
0V"
#9714
1V"
#9730
0V"
#9746
1V"
#9763
0V"
#9779
1V"
#9795
0V"
#9811
1V"
#9828
0V"
#9844
1V"
#9860
0V"
#9877
1V"
#9893
0V"
#9909
1V"
#9925
0V"
#9942
1V"
#9958
0V"
#9974
1V"
#9991
0V"
#10007
1V"
#10023
0V"
#10040
1V"
#10056
0V"
#10072
1V"
#10088
0V"
#10105
1V"
#10121
0V"
#10137
1V"
#10153
0V"
#10169
1V"
#10186
0V"
#10202
1V"
#10218
0V"
1X"
#10235
1V"
#10251
0V"
#10267
1V"
#10269
b11000110111001100101 Q
1W"
#10270
0W"
#10275
b11001000000010100000000000000000101010001111001 i
b10100001011 K"
1Z"
#10276
b110101101100100011111111111111111010001010011101 i
b10011111100 K"
0Z"
#10278
b1000000111000000111 "
b10100001011 F
1Y"
#10279
b1110101010100000100 "
b10011111100 F
0Y"
#10284
0V"
#10300
1V"
#10316
0V"
#10332
1V"
#10349
0V"
#10365
1V"
#10381
0V"
#10397
1V"
#10414
0V"
#10430
1V"
#10446
0V"
#10463
1V"
#10479
0V"
#10495
1V"
#10511
0V"
#10528
1V"
#10544
0V"
#10560
1V"
#10577
0V"
#10593
1V"
#10609
0V"
#10625
1V"
#10642
0V"
#10658
1V"
#10674
0V"
#10690
1V"
#10707
0V"
#10723
1V"
#10739
0V"
#10756
1V"
#10772
0V"
#10788
1V"
#10804
0V"
#10821
1V"
#10837
0V"
#10853
1V"
#10869
0V"
#10886
1V"
#10902
0V"
#10918
1V"
#10934
0V"
#10951
1V"
#10967
0V"
#10983
1V"
#11000
0V"
#11016
1V"
#11032
0V"
#11049
1V"
#11065
0V"
#11081
1V"
#11097
0V"
#11114
1V"
#11130
0V"
#11146
1V"
#11163
0V"
#11179
1V"
#11195
0V"
#11211
1V"
#11228
0V"
#11244
1V"
#11260
0V"
0X"
#11276
1V"
#11293
0V"
#11309
1V"
#11325
0V"
#11341
1V"
#11358
0V"
#11374
1V"
#11390
0V"
#11407
1V"
#11423
0V"
#11439
1V"
#11455
0V"
#11472
1V"
#11488
0V"
#11504
1V"
#11520
0V"
#11537
1V"
#11553
0V"
#11569
1V"
#11586
0V"
#11602
1V"
#11618
0V"
#11634
1V"
#11651
0V"
#11667
1V"
#11683
0V"
#11700
1V"
#11716
0V"
#11732
1V"
#11749
0V"
#11765
1V"
#11781
0V"
#11797
1V"
#11814
0V"
#11830
1V"
#11846
0V"
#11862
1V"
#11879
0V"
#11895
1V"
#11911
0V"
#11927
1V"
#11944
0V"
#11960
1V"
#11976
0V"
#11992
1V"
#12009
0V"
#12025
1V"
#12041
0V"
#12058
1V"
#12074
0V"
#12090
1V"
#12106
0V"
#12123
1V"
#12139
0V"
#12155
1V"
#12171
0V"
#12187
1V"
#12204
0V"
#12220
1V"
#12237
0V"
#12253
1V"
#12269
0V"
#12286
1V"
#12302
0V"
1X"
#12318
1V"
#12334
0V"
#12351
1V"
#12353
b11010011111101011100 Q
1W"
#12354
0W"
#12359
b1111111111111111100110111001010000000000000000000000010111000000 i
b10100001100 K"
1Z"
#12360
b1111111111111111111011101111010100000000000000000100101001001001 i
b10011111101 K"
0Z"
#12362
b101101010111110100 "
b10100001100 F
1Y"
#12363
b100100110000101011 "
b10011111101 F
0Y"
#12367
0V"
#12383
1V"
#12399
0V"
#12416
1V"
#12432
0V"
#12448
1V"
#12465
0V"
#12481
1V"
#12497
0V"
#12513
1V"
#12530
0V"
#12546
1V"
#12562
0V"
#12578
1V"
#12594
0V"
#12611
1V"
#12627
0V"
#12643
1V"
#12660
0V"
#12676
1V"
#12692
0V"
#12709
1V"
#12725
0V"
#12741
1V"
#12758
0V"
#12774
1V"
#12790
0V"
#12806
1V"
#12823
0V"
#12839
1V"
#12855
0V"
#12872
1V"
#12888
0V"
#12904
1V"
#12920
0V"
#12936
1V"
#12953
0V"
#12969
1V"
#12985
0V"
#13002
1V"
#13018
0V"
#13034
1V"
#13051
0V"
#13067
1V"
#13083
0V"
#13099
1V"
#13116
0V"
#13132
1V"
#13148
0V"
#13164
1V"
#13181
0V"
#13197
1V"
#13213
0V"
#13230
1V"
#13246
0V"
#13262
1V"
#13278
0V"
#13294
1V"
#13311
0V"
#13327
1V"
#13343
0V"
0X"
#13360
1V"
#13376
0V"
#13392
1V"
#13409
0V"
#13425
1V"
#13441
0V"
#13457
1V"
#13474
0V"
#13490
1V"
#13506
0V"
#13522
1V"
#13539
0V"
#13555
1V"
#13571
0V"
#13588
1V"
#13604
0V"
#13620
1V"
#13636
0V"
#13653
1V"
#13669
0V"
#13685
1V"
#13701
0V"
#13718
1V"
#13734
0V"
#13750
1V"
#13767
0V"
#13783
1V"
#13799
0V"
#13816
1V"
#13832
0V"
#13848
1V"
#13864
0V"
#13881
1V"
#13897
0V"
#13913
1V"
#13929
0V"
#13946
1V"
#13962
0V"
#13978
1V"
#13994
0V"
#14011
1V"
#14027
0V"
#14043
1V"
#14059
0V"
#14076
1V"
#14092
0V"
#14108
1V"
#14125
0V"
#14141
1V"
#14157
0V"
#14174
1V"
#14190
0V"
#14206
1V"
#14222
0V"
#14238
1V"
#14254
0V"
#14271
1V"
#14287
0V"
#14303
1V"
#14320
0V"
#14336
1V"
#14353
0V"
#14369
1V"
#14385
0V"
1X"
#14402
1V"
#14418
0V"
#14434
1V"
#14436
b11001000010100111101 Q
1W"
#14437
0W"
#14442
b1111111111111111110000000000011000000000000000000001100111011110 i
b10100001101 K"
1Z"
#14443
b1111111111111111100101011001011100000000000000000110001101100100 i
b10011111110 K"
0Z"
#14445
b100010011101001110 "
b10100001101 F
1Y"
#14446
b1000111011001101111 "
b10011111110 F
0Y"
#14450
0V"
#14467
1V"
#14483
0V"
#14499
1V"
#14516
0V"
#14532
1V"
#14548
0V"
#14564
1V"
#14580
0V"
#14597
1V"
#14613
0V"
#14629
1V"
#14645
0V"
#14662
1V"
#14678
0V"
#14694
1V"
#14711
0V"
#14727
1V"
#14743
0V"
#14759
1V"
#14776
0V"
#14792
1V"
#14808
0V"
#14825
1V"
#14841
0V"
#14857
1V"
#14874
0V"
#14890
1V"
#14906
0V"
#14922
1V"
#14939
0V"
#14955
1V"
#14971
0V"
#14987
1V"
#15004
0V"
#15020
1V"
#15036
0V"
#15052
1V"
#15069
0V"
#15085
1V"
#15101
0V"
#15117
1V"
#15134
0V"
#15150
1V"
#15166
0V"
#15183
1V"
#15199
0V"
#15215
1V"
#15232
0V"
#15248
1V"
#15264
0V"
#15280
1V"
#15297
0V"
#15313
1V"
#15329
0V"
#15345
1V"
#15361
0V"
#15378
1V"
#15394
0V"
#15410
1V"
#15427
0V"
0X"
#15443
1V"
#15459
0V"
#15476
1V"
#15492
0V"
#15508
1V"
#15524
0V"
#15541
1V"
#15557
0V"
#15573
1V"
#15589
0V"
#15606
1V"
#15622
0V"
#15638
1V"
#15655
0V"
#15671
1V"
#15687
0V"
#15704
1V"
#15720
0V"
#15736
1V"
#15752
0V"
#15769
1V"
#15785
0V"
#15801
1V"
#15817
0V"
#15834
1V"
#15850
0V"
#15866
1V"
#15882
0V"
#15899
1V"
#15915
0V"
#15931
1V"
#15948
0V"
#15964
1V"
#15980
0V"
#15996
1V"
#16013
0V"
#16029
1V"
#16045
0V"
#16061
1V"
#16078
0V"
#16094
1V"
#16110
0V"
#16127
1V"
#16143
0V"
#16159
1V"
#16175
0V"
#16192
1V"
#16208
0V"
#16224
1V"
#16241
0V"
#16257
1V"
#16273
0V"
#16289
1V"
#16306
0V"
#16322
1V"
#16338
0V"
#16355
1V"
#16371
0V"
